{
    "org.apache.cordova.camera": {
        "source": {
            "type": "local",
            "path": "/Users/Ache/.plugman/cache/org.apache.cordova.camera/0.3.6/package"
        }
    },
    "org.apache.cordova.file": {
        "source": {
            "type": "local",
            "path": "/Users/Ache/.plugman/cache/org.apache.cordova.file/1.3.3/package"
        }
    },
    "org.apache.cordova.file-transfer": {
        "source": {
            "type": "local",
            "path": "/Users/Ache/.plugman/cache/org.apache.cordova.file-transfer/0.5.0/package"
        }
    },
    "org.apache.cordova.media": {
        "source": {
            "type": "local",
            "path": "/Users/Ache/.plugman/cache/org.apache.cordova.media/0.2.16/package"
        }
    },
    "org.apache.cordova.media-capture": {
        "source": {
            "type": "local",
            "path": "/Users/Ache/.plugman/cache/org.apache.cordova.media-capture/0.3.6/package"
        }
    },
    "com.phonegap.plugins.facebookconnect": {
        "source": {
            "type": "local",
            "path": "/Users/Ache/Documents/Projects/PhotoBook/downloadedPlugins/phonegap-facebook-plugin"
        },
        "is_top_level": true,
        "variables": {
            "APP_ID": "588369217977873",
            "APP_NAME": "PhotoBooth"
        }
    }
}